waveform.vcd
$date
        2024-May-22 04:23:41
$end
$version
        Vivado v2020.2 (64-bit)
$end
$timescale
        1ps
$end
$scope module dut $end
$var reg 8 " USB_DATAI [7:0] $end
$var reg 1 * simple_proc_sys_i/usb_ulpi_axi_wr_i/usb_ulpi_axi_i/usb_ulpi_ahb_i/usbhsc_i/OvrRun $end
$var reg 1 + simple_proc_sys_i/usb_ulpi_axi_wr_i/usb_ulpi_axi_i/usb_ulpi_ahb_i/RXERROR $end
$var reg 1 , simple_proc_sys_i/usb_ulpi_axi_wr_i/usb_ulpi_axi_i/usb_ulpi_ahb_i/usbhsc_i/U1/TimeoutX $end
$var reg 1 - USB_NXT_IBUF $end
$var reg 1 . USB_OEN $end
$var reg 1 / USB_RESET_OBUF $end
$var reg 1 0 USB_STP_OBUF $end
$var reg 1 1 _TRIGGER $end
$var reg 1 2 _WINDOW $end
$var reg 1 3 _GAP $end
$upscope $end
$enddefinitions $end
#0
$dumpvars
b0 "
0*
0+
0,
0-
0.
0/
00
01
12
03
$end
#4
b1001001 "
11
#7
1-
#8
b10000001 "
#9
b1011000 "
#10
b0 "
0-
10
#11
00
#12
1.
#13
b1101 "
#15
b0 "
0.
#18
1.
#19
b1100 "
#21
b0 "
0.
#34
1.
#35
b1101 "
#37
b0 "
0.
#39
1-
1.
#40
b11101 "
0-
#41
b1011010 "
1-
#42
b1100 "
0-
#44
b0 "
0.
#117
b1001001 "
#120
1-
#121
b10000001 "
#122
b1011000 "
#123
b0 "
0-
10
#124
00
#125
1.
#126
b1101 "
#128
b0 "
0.
#131
1.
#132
b1100 "
#134
b0 "
0.
#146
1.
#147
b1101 "
#149
b0 "
0.
#151
1-
1.
#152
b11101 "
0-
#153
b1011010 "
1-
#154
b1100 "
0-
#156
b0 "
0.
#228
b1001001 "
#231
1-
#232
b10000001 "
#233
b1011000 "
#234
b0 "
0-
10
#235
00
#236
1.
#237
b1101 "
#239
b0 "
0.
#242
1.
#243
b1100 "
#245
b0 "
0.
#258
1.
#259
b1101 "
#261
b0 "
0.
#263
1-
1.
#264
b11101 "
0-
#265
b1011010 "
1-
#266
b1100 "
0-
#268
b0 "
0.
#340
b1001001 "
#343
1-
#344
b10000001 "
#345
b1011000 "
#346
b0 "
0-
10
#347
00
#348
1.
#349
b1101 "
#351
b0 "
0.
#354
1.
#355
b1100 "
#357
b0 "
0.
#370
1.
#371
b1101 "
#373
b0 "
0.
#375
1-
1.
#376
b11101 "
0-
#377
b1011010 "
1-
#378
b1100 "
0-
#380
b0 "
0.
#453
b1001001 "
#456
1-
#457
b10000001 "
#458
b1011000 "
#459
b0 "
0-
10
#460
00
#461
1.
#462
b1101 "
#464
b0 "
0.
#467
1.
#468
b1100 "
#470
b0 "
0.
#482
1.
#483
b1101 "
#485
b0 "
0.
#487
1-
1.
#488
b11101 "
0-
#489
b1011010 "
1-
#490
b1100 "
0-
#492
b0 "
0.
#564
b1001001 "
#567
1-
#568
b10000001 "
#569
b1011000 "
#570
b0 "
0-
10
#571
00
#572
1.
#573
b1101 "
#575
b0 "
0.
#578
1.
#579
b1100 "
#581
b0 "
0.
#594
1.
#595
b1101 "
#597
b0 "
0.
#599
1-
1.
#600
b11101 "
0-
#601
b1011010 "
1-
#602
b1100 "
0-
#604
b0 "
0.
#677
b1001001 "
#680
1-
#681
b10000001 "
#682
b1011000 "
#683
b0 "
0-
10
#684
00
#685
1.
#686
b1101 "
#688
b0 "
0.
#691
1.
#692
b1100 "
#694
b0 "
0.
#706
1.
#707
b1101 "
#709
b0 "
0.
#711
1-
1.
#712
b11101 "
0-
#713
b1011010 "
1-
#714
b1100 "
0-
#716
b0 "
0.
#789
b1001001 "
#792
1-
#793
b10000001 "
#794
b1011000 "
#795
b0 "
0-
10
#796
00
#797
1.
#798
b1101 "
#800
b0 "
0.
#803
1.
#804
b1100 "
#806
b0 "
0.
#818
1.
#819
b1101 "
#821
b0 "
0.
#823
1-
1.
#824
b11101 "
0-
#825
b1011010 "
1-
#826
b1100 "
0-
#828
b0 "
0.
#900
b1001001 "
#903
1-
#904
b10000001 "
#905
b1011000 "
#906
b0 "
0-
10
#907
00
#908
1.
#909
b1101 "
#911
b0 "
0.
#914
1.
#915
b1100 "
#917
b0 "
0.
#930
1.
#931
b1101 "
#933
b0 "
0.
#935
1-
1.
#936
b11101 "
0-
#937
b1011010 "
1-
#938
b1100 "
0-
#940
b0 "
0.
#1013
b1001001 "
#1016
1-
#1017
b10000001 "
#1018
b1011000 "
#1019
b0 "
0-
10
#1020
00
#1021
1.
#1022
b1101 "
#1024
b0 "
0.
#1027
1.
#1028
b1100 "
#1030
b0 "
0.
#1042
1.
#1043
b1101 "
#1045
b0 "
0.
#1047
1-
1.
#1048
b11101 "
0-
#1049
b1011010 "
1-
#1050
b1100 "
0-
#1052
b0 "
0.
#1125
b1001001 "
#1128
1-
#1129
b10000001 "
#1130
b1011000 "
#1131
b0 "
0-
10
#1132
00
#1133
1.
#1134
b1101 "
#1136
b0 "
0.
#1139
1.
#1140
b1100 "
#1142
b0 "
0.
#1154
1.
#1155
b1101 "
#1157
b0 "
0.
#1159
1-
1.
#1160
b11101 "
0-
#1161
b1011010 "
1-
#1162
b1100 "
0-
#1164
b0 "
0.
#1236
b1001001 "
#1239
1-
#1240
b10000001 "
#1241
b1011000 "
#1242
b0 "
0-
10
#1243
00
#1244
1.
#1245
b1101 "
#1247
b0 "
0.
#1250
1.
#1251
b1100 "
#1253
b0 "
0.
#1266
1.
#1267
b1101 "
#1269
b0 "
0.
#1271
1-
1.
#1272
b11101 "
0-
#1273
b1011010 "
1-
#1274
b1100 "
0-
#1276
b0 "
0.
#1349
b1001001 "
#1352
1-
#1353
b10000001 "
#1354
b1011000 "
#1355
b0 "
0-
10
#1356
00
#1357
1.
#1358
b1101 "
#1360
b0 "
0.
#1363
1.
#1364
b1100 "
#1366
b0 "
0.
#1378
1.
#1379
b1101 "
#1381
b0 "
0.
#1383
1-
1.
#1384
b11101 "
0-
#1385
b1011010 "
1-
#1386
b1100 "
0-
#1388
b0 "
0.
#1459
b1001001 "
#1462
1-
#1463
b10000001 "
#1464
b1011000 "
#1465
b0 "
0-
10
#1466
00
#1467
1.
#1468
b1101 "
#1470
b0 "
0.
#1473
1.
#1474
b1100 "
#1476
b0 "
0.
#1488
1.
#1489
b1101 "
#1491
b0 "
0.
#1493
1-
1.
#1494
b11101 "
0-
#1495
b1011010 "
1-
#1496
b1100 "
0-
#1498
b0 "
0.
#1570
b1001001 "
#1573
1-
#1574
b10000001 "
#1575
b1011000 "
#1576
b0 "
0-
10
#1577
00
#1578
1.
#1579
b1101 "
#1581
b0 "
0.
#1584
1.
#1585
b1100 "
#1587
b0 "
0.
#1600
1.
#1601
b1101 "
#1603
b0 "
0.
#1605
1-
1.
#1606
b11101 "
0-
#1607
b1011010 "
1-
#1608
b1100 "
0-
#1610
b0 "
0.
#1683
b1001001 "
#1686
1-
#1687
b10000001 "
#1688
b1011000 "
#1689
b0 "
0-
10
#1690
00
#1691
1.
#1692
b1101 "
#1694
b0 "
0.
#1697
1.
#1698
b1100 "
#1700
b0 "
0.
#1712
1.
#1713
b1101 "
#1715
b0 "
0.
#1717
1-
1.
#1718
b11101 "
0-
#1719
b1011010 "
1-
#1720
b1100 "
0-
#1722
b0 "
0.
#1794
b1001001 "
#1797
1-
#1798
b10000001 "
#1799
b1011000 "
#1800
b0 "
0-
10
#1801
00
#1802
1.
#1803
b1101 "
#1805
b0 "
0.
#1808
1.
#1809
b1100 "
#1811
b0 "
0.
#1824
1.
#1825
b1101 "
#1827
b0 "
0.
#1829
1-
1.
#1830
b11101 "
0-
#1831
b1011010 "
1-
#1832
b1100 "
0-
#1834
b0 "
0.
#1906
b1001001 "
#1909
1-
#1910
b10000001 "
#1911
b1011000 "
#1912
b0 "
0-
10
#1913
00
#1914
1.
#1915
b1101 "
#1917
b0 "
0.
#1920
1.
#1921
b1100 "
#1923
b0 "
0.
#1936
1.
#1937
b1101 "
#1939
b0 "
0.
#1941
1-
1.
#1942
b11101 "
0-
#1943
b1011010 "
1-
#1944
b1100 "
0-
#1946
b0 "
0.
#2019
b1001001 "
#2022
1-
#2023
b10000001 "
#2024
b1011000 "
#2025
b0 "
0-
10
#2026
00
#2027
1.
#2028
b1101 "
#2030
b0 "
0.
#2033
1.
#2034
b1100 "
#2036
b0 "
0.
#2048
1.
#2049
b1101 "
#2051
b0 "
0.
#2053
1-
1.
#2054
b11101 "
0-
#2055
b1011010 "
1-
#2056
b1100 "
0-
#2058
b0 "
0.
#2130
b1001001 "
#2133
1-
#2134
b10000001 "
#2135
b1011000 "
#2136
b0 "
0-
10
#2137
00
#2138
1.
#2139
b1101 "
#2141
b0 "
0.
#2144
1.
#2145
b1100 "
#2147
b0 "
0.
#2160
1.
#2161
b1101 "
#2163
b0 "
0.
#2165
1-
1.
#2166
b11101 "
0-
#2167
b1011010 "
1-
#2168
b1100 "
0-
#2170
b0 "
0.
#2265
1,
#2267
0,
#3178
b1000101 "
#3180
1-
#3181
b10101100 "
#3182
b11000100 "
#3183
b0 "
0-
10
#3184
00
#3185
1.
#3186
b1101 "
#3188
b0 "
0.
#3196
1.
#3197
b1100 "
#3199
b0 "
0.
#3224
b1001001 "
#3227
1-
#3228
b10000001 "
#3229
b1011000 "
#3230
b0 "
0-
10
#3231
00
#3232
1.
#3233
b1101 "
#3235
b0 "
0.
#3238
1.
#3239
b1100 "
#3241
b0 "
0.
#3254
1.
#3255
b1101 "
#3257
b0 "
0.
#3260
1-
1.
#3261
b1011010 "
#3262
b1100 "
0-
#3264
b0 "
0.
#3336
b1001001 "
#3339
1-
#3340
b10000001 "
#3341
b1011000 "
#3342
b0 "
0-
10
#3343
00
#3344
1.
#3345
b1101 "
#3347
b0 "
0.
#3350
1.
#3351
b1100 "
#3353
b0 "
0.
#3366
1.
#3367
b1101 "
#3369
b0 "
0.
#3372
1-
1.
#3373
b1011010 "
#3374
b1100 "
0-
#3376
b0 "
0.
#3449
b1001001 "
#3452
1-
#3453
b10000001 "
#3454
b1011000 "
#3455
b0 "
0-
10
#3456
00
#3457
1.
#3458
b1101 "
#3460
b0 "
0.
#3463
1.
#3464
b1100 "
#3466
b0 "
0.
#3478
1.
#3479
b1101 "
#3481
b0 "
0.
#3484
1-
1.
#3485
b1011010 "
#3486
b1100 "
0-
#3488
b0 "
0.
#3560
b1001001 "
#3563
1-
#3564
b10000001 "
#3565
b1011000 "
#3566
b0 "
0-
10
#3567
00
#3568
1.
#3569
b1101 "
#3571
b0 "
0.
#3574
1.
#3575
b1100 "
#3577
b0 "
0.
#3590
1.
#3591
b1101 "
#3593
b0 "
0.
#3596
1-
1.
#3597
b1011010 "
#3598
b1100 "
0-
#3600
b0 "
0.
#3672
b1001001 "
#3675
1-
#3676
b10000001 "
#3677
b1011000 "
#3678
b0 "
0-
10
#3679
00
#3680
1.
#3681
b1101 "
#3683
b0 "
0.
#3686
1.
#3687
b1100 "
#3689
b0 "
0.
#3702
1.
#3703
b1101 "
#3705
b0 "
0.
#3708
1-
1.
#3709
b1011010 "
#3710
b1100 "
0-
#3712
b0 "
0.
#3785
b1001001 "
#3788
1-
#3789
b10000001 "
#3790
b1011000 "
#3791
b0 "
0-
10
#3792
00
#3793
1.
#3794
b1101 "
#3796
b0 "
0.
#3799
1.
#3800
b1100 "
#3802
b0 "
0.
#3814
1.
#3815
b1101 "
#3817
b0 "
0.
#3820
1-
1.
#3821
b1011010 "
#3822
b1100 "
0-
#3824
b0 "
0.
#3896
b1001001 "
#3899
1-
#3900
b10000001 "
#3901
b1011000 "
#3902
b0 "
0-
10
#3903
00
#3904
1.
#3905
b1101 "
#3907
b0 "
0.
#3910
1.
#3911
b1100 "
#3913
b0 "
0.
#3926
1.
#3927
b1101 "
#3929
b0 "
0.
#3932
1-
1.
#3933
b1011010 "
#3934
b1100 "
0-
#3936
b0 "
0.
#4008
b1001001 "
#4011
1-
#4012
b10000001 "
#4013
b1011000 "
#4014
b0 "
0-
10
#4015
00
#4016
1.
#4017
b1101 "
#4019
b0 "
0.
#4022
1.
#4023
b1100 "
#4025
b0 "
0.
#4038
1.
#4039
b1101 "
#4041
b0 "
0.
#4044
1-
1.
#4045
b1011010 "
#4046
b1100 "
0-
#4048
b0 "
0.
#4121
b1001001 "
#4124
1-
#4125
b10000001 "
#4126
b1011000 "
#4127
b0 "
0-
10
#4128
00
#4129
1.
#4130
b1101 "
#4132
b0 "
0.
#4135
1.
#4136
b1100 "
#4138
b0 "
0.
#4150
1.
#4151
b1101 "
#4153
b0 "
0.
#4156
1-
1.
#4157
b1011010 "
#4158
b1100 "
0-
#4160
b0 "
0.
#4232
b1001001 "
#4235
1-
#4236
b10000001 "
#4237
b1011000 "
#4238
b0 "
0-
10
#4239
00
#4240
1.
#4241
b1101 "
#4243
b0 "
0.
#4246
1.
#4247
b1100 "
#4249
b0 "
0.
#4262
1.
#4263
b1101 "
#4265
b0 "
0.
#4268
1-
1.
#4269
b1011010 "
#4270
b1100 "
0-
#4272
b0 "
0.
#4344
b1001001 "
#4347
1-
#4348
b10000001 "
#4349
b1011000 "
#4350
b0 "
0-
10
#4351
00
#4352
1.
#4353
b1101 "
#4355
b0 "
0.
#4358
1.
#4359
b1100 "
#4361
b0 "
0.
#4374
1.
#4375
b1101 "
#4377
b0 "
0.
#4380
1-
1.
#4381
b1011010 "
#4382
b1100 "
0-
#4384
b0 "
0.
#4457
b1001001 "
#4460
1-
#4461
b10000001 "
#4462
b1011000 "
#4463
b0 "
0-
10
#4464
00
#4465
1.
#4466
b1101 "
#4468
b0 "
0.
#4471
1.
#4472
b1100 "
#4474
b0 "
0.
#4486
1.
#4487
b1101 "
#4489
b0 "
0.
#4492
1-
1.
#4493
b1011010 "
#4494
b1100 "
0-
#4496
b0 "
0.
#4568
b1001001 "
#4571
1-
#4572
b10000001 "
#4573
b1011000 "
#4574
b0 "
0-
10
#4575
00
#4576
1.
#4577
b1101 "
#4579
b0 "
0.
#4582
1.
#4583
b1100 "
#4585
b0 "
0.
#4598
1.
#4599
b1101 "
#4601
b0 "
0.
#4604
1-
1.
#4605
b1011010 "
#4606
b1100 "
0-
#4608
b0 "
0.
#4680
b1001001 "
#4683
1-
#4684
b10000001 "
#4685
b1011000 "
#4686
b0 "
0-
10
#4687
00
#4688
1.
#4689
b1101 "
#4691
b0 "
0.
#4694
1.
#4695
b1100 "
#4697
b0 "
0.
#4710
1.
#4711
b1101 "
#4713
b0 "
0.
#4716
1-
1.
#4717
b1011010 "
#4718
b1100 "
0-
#4720
b0 "
0.
#4793
b1001001 "
#4796
1-
#4797
b10000001 "
#4798
b1011000 "
#4799
b0 "
0-
10
#4800
00
#4801
1.
#4802
b1101 "
#4804
b0 "
0.
#4807
1.
#4808
b1100 "
#4810
b0 "
0.
#4822
1.
#4823
b1101 "
#4825
b0 "
0.
#4828
1-
1.
#4829
b1011010 "
#4830
b1100 "
0-
#4832
b0 "
0.
#4904
b1001001 "
#4907
1-
#4908
b10000001 "
#4909
b1011000 "
#4910
b0 "
0-
10
#4911
00
#4912
1.
#4913
b1101 "
#4915
b0 "
0.
#4918
1.
#4919
b1100 "
#4921
b0 "
0.
#4934
1.
#4935
b1101 "
#4937
b0 "
0.
#4940
1-
1.
#4941
b1011010 "
#4942
b1100 "
0-
#4944
b0 "
0.
#5016
b1001001 "
#5019
1-
#5020
b10000001 "
#5021
b1011000 "
#5022
b0 "
0-
10
#5023
00
#5024
1.
#5025
b1101 "
#5027
b0 "
0.
#5030
1.
#5031
b1100 "
#5033
b0 "
0.
#5046
1.
#5047
b1101 "
#5049
b0 "
0.
#5052
1-
1.
#5053
b1011010 "
#5054
b1100 "
0-
#5056
b0 "
0.
#5129
b1001001 "
#5132
1-
#5133
b10000001 "
#5134
b1011000 "
#5135
b0 "
0-
10
#5136
00
#5137
1.
#5138
b1101 "
#5140
b0 "
0.
#5143
1.
#5144
b1100 "
#5146
b0 "
0.
#5158
1.
#5159
b1101 "
#5161
b0 "
0.
#5164
1-
1.
#5165
b1011010 "
#5166
b1100 "
0-
#5168
b0 "
0.
#5240
b1001001 "
#5243
1-
#5244
b10000001 "
#5245
b1011000 "
#5246
b0 "
0-
10
#5247
00
#5248
1.
#5249
b1101 "
#5251
b0 "
0.
#5254
1.
#5255
b1100 "
#5257
b0 "
0.
#5270
1.
#5271
b1101 "
#5273
b0 "
0.
#5276
1-
1.
#5277
b1011010 "
#5278
b1100 "
0-
#5280
b0 "
0.
#5353
b1001001 "
#5356
1-
#5357
b10000001 "
#5358
b1011000 "
#5359
b0 "
0-
10
#5360
00
#5361
1.
#5362
b1101 "
#5364
b0 "
0.
#5367
1.
#5368
b1100 "
#5370
b0 "
0.
#5382
1.
#5383
b1101 "
#5385
b0 "
0.
#5388
1-
1.
#5389
b1011010 "
#5390
b1100 "
0-
#5392
b0 "
0.
#5465
b1001001 "
#5468
1-
#5469
b10000001 "
#5470
b1011000 "
#5471
b0 "
0-
10
#5472
00
#5473
1.
#5474
b1101 "
#5476
b0 "
0.
#5479
1.
#5480
b1100 "
#5482
b0 "
0.
#5494
1.
#5495
b1101 "
#5497
b0 "
0.
#5500
1-
1.
#5501
b1011010 "
#5502
b1100 "
0-
#5504
b0 "
0.
#5576
b1001001 "
#5579
1-
#5580
b10000001 "
#5581
b1011000 "
#5582
b0 "
0-
10
#5583
00
#5584
1.
#5585
b1101 "
#5587
b0 "
0.
#5590
1.
#5591
b1100 "
#5593
b0 "
0.
#5606
1.
#5607
b1101 "
#5609
b0 "
0.
#5612
1-
1.
#5613
b1011010 "
#5614
b1100 "
0-
#5616
b0 "
0.
#5689
b1001001 "
#5692
1-
#5693
b10000001 "
#5694
b1011000 "
#5695
b0 "
0-
10
#5696
00
#5697
1.
#5698
b1101 "
#5700
b0 "
0.
#5703
1.
#5704
b1100 "
#5706
b0 "
0.
#5718
1.
#5719
b1101 "
#5721
b0 "
0.
#5724
1-
1.
#5725
b1011010 "
#5726
b1100 "
0-
#5728
b0 "
0.
#5801
b1001001 "
#5804
1-
#5805
b10000001 "
#5806
b1011000 "
#5807
b0 "
0-
10
#5808
00
#5809
1.
#5810
b1101 "
#5812
b0 "
0.
#5815
1.
#5816
b1100 "
#5818
b0 "
0.
#5830
1.
#5831
b1101 "
#5833
b0 "
0.
#5836
1-
1.
#5837
b1011010 "
#5838
b1100 "
0-
#5840
b0 "
0.
#5912
b1001001 "
#5915
1-
#5916
b10000001 "
#5917
b1011000 "
#5918
b0 "
0-
10
#5919
00
#5920
1.
#5921
b1101 "
#5923
b0 "
0.
#5926
1.
#5927
b1100 "
#5929
b0 "
0.
#5942
1.
#5943
b1101 "
#5945
b0 "
0.
#5948
1-
1.
#5949
b1011010 "
#5950
b1100 "
0-
#5952
b0 "
0.
#6025
b1001001 "
#6028
1-
#6029
b10000001 "
#6030
b1011000 "
#6031
b0 "
0-
10
#6032
00
#6033
1.
#6034
b1101 "
#6036
b0 "
0.
#6039
1.
#6040
b1100 "
#6042
b0 "
0.
#6054
1.
#6055
b1101 "
#6057
b0 "
0.
#6060
1-
1.
#6061
b1011010 "
#6062
b1100 "
0-
#6064
b0 "
0.
#6136
b1001001 "
#6139
1-
#6140
b10000001 "
#6141
b1011000 "
#6142
b0 "
0-
10
#6143
00
#6144
1.
#6145
b1101 "
#6147
b0 "
0.
#6150
1.
#6151
b1100 "
#6153
b0 "
0.
#6166
1.
#6167
b1101 "
#6169
b0 "
0.
#6172
1-
1.
#6173
b1011010 "
#6174
b1100 "
0-
#6176
b0 "
0.
#6248
b1001001 "
#6251
1-
#6252
b10000001 "
#6253
b1011000 "
#6254
b0 "
0-
10
#6255
00
#6256
1.
#6257
b1101 "
#6259
b0 "
0.
#6262
1.
#6263
b1100 "
#6265
b0 "
0.
#6278
1.
#6279
b1101 "
#6281
b0 "
0.
#6284
1-
1.
#6285
b1011010 "
#6286
b1100 "
0-
#6288
b0 "
0.
#6361
b1001001 "
#6364
1-
#6365
b10000001 "
#6366
b1011000 "
#6367
b0 "
0-
10
#6368
00
#6369
1.
#6370
b1101 "
#6372
b0 "
0.
#6375
1.
#6376
b1100 "
#6378
b0 "
0.
#6391
1.
#6392
b1101 "
#6394
b0 "
0.
#6396
1-
1.
#6397
b1011010 "
#6398
b1100 "
0-
#6400
b0 "
0.
#6472
b1001001 "
#6475
1-
#6476
b10000001 "
#6477
b1011000 "
#6478
b0 "
0-
10
#6479
00
#6480
1.
#6481
b1101 "
#6483
b0 "
0.
#6486
1.
#6487
b1100 "
#6489
b0 "
0.
#6503
1.
#6504
b1101 "
#6506
b0 "
0.
#6508
1-
1.
#6509
b1011010 "
#6510
b1100 "
0-
#6512
b0 "
0.
#6584
b1001001 "
#6587
1-
#6588
b10000001 "
#6589
b1011000 "
#6590
b0 "
0-
10
#6591
00
#6592
1.
#6593
b1101 "
#6595
b0 "
0.
#6598
1.
#6599
b1100 "
#6601
b0 "
0.
#6615
1.
#6616
b1101 "
#6618
b0 "
0.
#6620
1-
1.
#6621
b1011010 "
#6622
b1100 "
0-
#6624
b0 "
0.
#6697
b1001001 "
#6700
1-
#6701
b10000001 "
#6702
b1011000 "
#6703
b0 "
0-
10
#6704
00
#6705
1.
#6706
b1101 "
#6708
b0 "
0.
#6711
1.
#6712
b1100 "
#6714
b0 "
0.
#6727
1.
#6728
b1101 "
#6730
b0 "
0.
#6732
1-
1.
#6733
b1011010 "
#6734
b1100 "
0-
#6736
b0 "
0.
#6808
b1001001 "
#6811
1-
#6812
b10000001 "
#6813
b1011000 "
#6814
b0 "
0-
10
#6815
00
#6816
1.
#6817
b1101 "
#6819
b0 "
0.
#6822
1.
#6823
b1100 "
#6825
b0 "
0.
#6839
1.
#6840
b1101 "
#6842
b0 "
0.
#6844
1-
1.
#6845
b1011010 "
#6846
b1100 "
0-
#6848
b0 "
0.
#6920
b1001001 "
#6923
1-
#6924
b10000001 "
#6925
b1011000 "
#6926
b0 "
0-
10
#6927
00
#6928
1.
#6929
b1101 "
#6931
b0 "
0.
#6934
1.
#6935
b1100 "
#6937
b0 "
0.
#6951
1.
#6952
b1101 "
#6954
b0 "
0.
#6956
1-
1.
#6957
b1011010 "
#6958
b1100 "
0-
#6960
b0 "
0.
#7033
b1001001 "
#7036
1-
#7037
b10000001 "
#7038
b1011000 "
#7039
b0 "
0-
10
#7040
00
#7041
1.
#7042
b1101 "
#7044
b0 "
0.
#7047
1.
#7048
b1100 "
#7050
b0 "
0.
#7063
1.
#7064
b1101 "
#7066
b0 "
0.
#7068
1-
1.
#7069
b1011010 "
#7070
b1100 "
0-
#7072
b0 "
0.
#7144
b1001001 "
#7147
1-
#7148
b10000001 "
#7149
b1011000 "
#7150
b0 "
0-
10
#7151
00
#7152
1.
#7153
b1101 "
#7155
b0 "
0.
#7158
1.
#7159
b1100 "
#7161
b0 "
0.
#7173
1.
#7174
b1101 "
#7176
b0 "
0.
#7178
1-
1.
#7179
b1011010 "
#7180
b1100 "
0-
#7182
b0 "
0.
#7255
b1001001 "
#7258
1-
#7259
b10000001 "
#7260
b1011000 "
#7261
b0 "
0-
10
#7262
00
#7263
1.
#7264
b1101 "
#7266
b0 "
0.
#7269
1.
#7270
b1100 "
#7272
b0 "
0.
#7285
1.
#7286
b1101 "
#7288
b0 "
0.
#7290
1-
1.
#7291
b1011010 "
#7292
b1100 "
0-
#7294
b0 "
0.
#7367
b1001001 "
#7370
1-
#7371
b10000001 "
#7372
b1011000 "
#7373
b0 "
0-
10
#7374
00
#7375
1.
#7376
b1101 "
#7378
b0 "
0.
#7381
1.
#7382
b1100 "
#7384
b0 "
0.
#7397
1.
#7398
b1101 "
#7400
b0 "
0.
#7402
1-
1.
#7403
b1011010 "
#7404
b1100 "
0-
#7406
b0 "
0.
#7478
b1001001 "
#7481
1-
#7482
b10000001 "
#7483
b1011000 "
#7484
b0 "
0-
10
#7485
00
#7486
1.
#7487
b1101 "
#7489
b0 "
0.
#7492
1.
#7493
b1100 "
#7495
b0 "
0.
#7507
1.
#7508
b1101 "
#7510
b0 "
0.
#7512
1-
1.
#7513
b1011010 "
#7514
b1100 "
0-
#7516
b0 "
0.
#7589
b1001001 "
#7592
1-
#7593
b10000001 "
#7594
b1011000 "
#7595
b0 "
0-
10
#7596
00
#7597
1.
#7598
b1101 "
#7600
b0 "
0.
#7603
1.
#7604
b1100 "
#7606
b0 "
0.
#7619
1.
#7620
b1101 "
#7622
b0 "
0.
#7624
1-
1.
#7625
b1011010 "
#7626
b1100 "
0-
#7628
b0 "
0.
#7700
b1001001 "
#7703
1-
#7704
b10000001 "
#7705
b1011000 "
#7706
b0 "
0-
10
#7707
00
#7708
1.
#7709
b1101 "
#7711
b0 "
0.
#7714
1.
#7715
b1100 "
#7717
b0 "
0.
#7729
1.
#7730
b1101 "
#7732
b0 "
0.
#7734
1-
1.
#7735
b1011010 "
#7736
b1100 "
0-
#7738
b0 "
0.
#7811
b1001001 "
#7814
1-
#7815
b10000001 "
#7816
b1011000 "
#7817
b0 "
0-
10
#7818
00
#7819
1.
#7820
b1101 "
#7822
b0 "
0.
#7825
1.
#7826
b1100 "
#7828
b0 "
0.
#7841
1.
#7842
b1101 "
#7844
b0 "
0.
#7846
1-
1.
#7847
b1011010 "
#7848
b1100 "
0-
#7850
b0 "
0.
#7922
b1001001 "
#7925
1-
#7926
b10000001 "
#7927
b1011000 "
#7928
b0 "
0-
10
#7929
00
#7930
1.
#7931
b1101 "
#7933
b0 "
0.
#7936
1.
#7937
b1100 "
#7939
b0 "
0.
#7951
1.
#7952
b1101 "
#7954
b0 "
0.
#7956
1-
1.
#7957
b1011010 "
#7958
b1100 "
0-
#7960
b0 "
0.
#8032
b1001001 "
#8035
1-
#8036
b10000001 "
#8037
b1011000 "
#8038
b0 "
0-
10
#8039
00
#8040
1.
#8041
b1101 "
#8043
b0 "
0.
#8046
1.
#8047
b1100 "
#8049
b0 "
0.
#8061
1.
#8062
b1101 "
#8064
b0 "
0.
#8066
1-
1.
#8067
b1011010 "
#8068
b1100 "
0-
#8070
b0 "
0.
#8142
b1001001 "
#8145
1-
#8146
b10000001 "
#8147
b1011000 "
#8148
b0 "
0-
10
#8149
00
#8150
1.
#8151
b1101 "
#8153
b0 "
0.
#8156
1.
#8157
b1100 "
#8159
b0 "
0.
#8171
1.
#8172
b1101 "
#8174
b0 "
0.
#8176
1-
1.
#8177
b1011010 "
#8178
b1100 "
0-
#8180
b0 "
0.
#8253
b1001001 "
#8256
1-
#8257
b10000001 "
#8258
b1011000 "
#8259
b0 "
0-
10
#8260
00
#8261
1.
#8262
b1101 "
#8264
b0 "
0.
#8267
1.
#8268
b1100 "
#8270
b0 "
0.
#8283
1.
#8284
b1101 "
#8286
b0 "
0.
#8288
1-
1.
#8289
b1011010 "
#8290
b1100 "
0-
#8292
b0 "
0.
#8365
b1001001 "
#8368
1-
#8369
b10000001 "
#8370
b1011000 "
#8371
b0 "
0-
10
#8372
00
#8373
1.
#8374
b1101 "
#8376
b0 "
0.
#8379
1.
#8380
b1100 "
#8382
b0 "
0.
#8395
1.
#8396
b1101 "
#8398
b0 "
0.
#8400
1-
1.
#8401
b1011010 "
#8402
b1100 "
0-
#8404
b0 "
0.
#8476
b1001001 "
#8479
1-
#8480
b10000001 "
#8481
b1011000 "
#8482
b0 "
0-
10
#8483
00
#8484
1.
#8485
b1101 "
#8487
b0 "
0.
#8490
1.
#8491
b1100 "
#8493
b0 "
0.
#8505
1.
#8506
b1101 "
#8508
b0 "
0.
#8510
1-
1.
#8511
b1011010 "
#8512
b1100 "
0-
#8514
b0 "
0.
#8587
b1001001 "
#8590
1-
#8591
b10000001 "
#8592
b1011000 "
#8593
b0 "
0-
10
#8594
00
#8595
1.
#8596
b1101 "
#8598
b0 "
0.
#8601
1.
#8602
b1100 "
#8604
b0 "
0.
#8617
1.
#8618
b1101 "
#8620
b0 "
0.
#8622
1-
1.
#8623
b1011010 "
#8624
b1100 "
0-
#8626
b0 "
0.
#8698
b1001001 "
#8701
1-
#8702
b10000001 "
#8703
b1011000 "
#8704
b0 "
0-
10
#8705
00
#8706
1.
#8707
b1101 "
#8709
b0 "
0.
#8712
1.
#8713
b1100 "
#8715
b0 "
0.
#8727
1.
#8728
b1101 "
#8730
b0 "
0.
#8732
1-
1.
#8733
b1011010 "
#8734
b1100 "
0-
#8736
b0 "
0.
#8809
b1001001 "
#8812
1-
#8813
b10000001 "
#8814
b1011000 "
#8815
b0 "
0-
10
#8816
00
#8817
1.
#8818
b1101 "
#8820
b0 "
0.
#8823
1.
#8824
b1100 "
#8826
b0 "
0.
#8839
1.
#8840
b1101 "
#8842
b0 "
0.
#8844
1-
1.
#8845
b1011010 "
#8846
b1100 "
0-
#8848
b0 "
0.
#8920
b1001001 "
#8923
1-
#8924
b10000001 "
#8925
b1011000 "
#8926
b0 "
0-
10
#8927
00
#8928
1.
#8929
b1101 "
#8931
b0 "
0.
#8934
1.
#8935
b1100 "
#8937
b0 "
0.
#8949
1.
#8950
b1101 "
#8952
b0 "
0.
#8954
1-
1.
#8955
b1011010 "
#8956
b1100 "
0-
#8958
b0 "
0.
#9030
b1001001 "
#9033
1-
#9034
b10000001 "
#9035
b1011000 "
#9036
b0 "
0-
10
#9037
00
#9038
1.
#9039
b1101 "
#9041
b0 "
0.
#9044
1.
#9045
b1100 "
#9047
b0 "
0.
#9059
1.
#9060
b1101 "
#9062
b0 "
0.
#9064
1-
1.
#9065
b1011010 "
#9066
b1100 "
0-
#9068
b0 "
0.
#9140
b1001001 "
#9143
1-
#9144
b10000001 "
#9145
b1011000 "
#9146
b0 "
0-
10
#9147
00
#9148
1.
#9149
b1101 "
#9151
b0 "
0.
#9154
1.
#9155
b1100 "
